[
{
    "model": "articles.article",
    "pk": 1,
    "fields": {
        "article_title": "Lorem Ipsum",
        "pub_date": "2018-02-08T13:56:44Z",
        "article_slug": "<django.db.models.fields.CharField>",
        "article_body": "<h4 style=\"text-align:center\">&quot;Neque porro quisquam est qui dolorem ipsum quia dolor sit amet, consectetur, adipisci velit...&quot;</h4>\r\n\r\n<h5 style=\"text-align:center\">&quot;There is no one who loves pain itself, who seeks after it and wants to have it, simply because it is pain...&quot;</h5>\r\n\r\n<hr />\r\n<h3 style=\"text-align:center\">What is Lorem Ipsum?</h3>\r\n\r\n<p><strong>Lorem Ipsum</strong>&nbsp;is simply dummy text of the printing and typesetting industry. Lorem Ipsum has been the industry&#39;s standard dummy text ever since the 1500s, when an unknown printer took a galley of type and scrambled it to make a type specimen book. It has survived not only five centuries, but also the leap into electronic typesetting, remaining essentially unchanged. It was popularised in the 1960s with the release of Letraset sheets containing Lorem Ipsum passages, and more recently with desktop publishing software like Aldus PageMaker including versions of Lorem Ipsum.</p>\r\n\r\n<h3 style=\"text-align:center\">Why do we use it?</h3>\r\n\r\n<p>It is a long established fact that a reader will be distracted by the readable content of a page when looking at its layout. The point of using Lorem Ipsum is that it has a more-or-less normal distribution of letters, as opposed to using &#39;Content here, content here&#39;, making it look like readable English. Many desktop publishing packages and web page editors now use Lorem Ipsum as their default model text, and a search for &#39;lorem ipsum&#39; will uncover many web sites still in their infancy. Various versions have evolved over the years, sometimes by accident, sometimes on purpose (injected humour and the like).</p>\r\n\r\n<p>&nbsp;</p>\r\n\r\n<h3 style=\"text-align:center\">Where does it come from?</h3>\r\n\r\n<p>Contrary to popular belief, Lorem Ipsum is not simply random text. It has roots in a piece of classical Latin literature from 45 BC, making it over 2000 years old. Richard McClintock, a Latin professor at Hampden-Sydney College in Virginia, looked up one of the more obscure Latin words, consectetur, from a Lorem Ipsum passage, and going through the cites of the word in classical literature, discovered the undoubtable source. Lorem Ipsum comes from sections 1.10.32 and 1.10.33 of &quot;de Finibus Bonorum et Malorum&quot; (The Extremes of Good and Evil) by Cicero, written in 45 BC. This book is a treatise on the theory of ethics, very popular during the Renaissance. The first line of Lorem Ipsum, &quot;Lorem ipsum dolor sit amet..&quot;, comes from a line in section 1.10.32.</p>\r\n\r\n<p>The standard chunk of Lorem Ipsum used since the 1500s is reproduced below for those interested. Sections 1.10.32 and 1.10.33 from &quot;de Finibus Bonorum et Malorum&quot; by Cicero are also reproduced in their exact original form, accompanied by English versions from the 1914 translation by H. Rackham.</p>"
    }
},
{
    "model": "articles.article",
    "pk": 2,
    "fields": {
        "article_title": "ultimate innovation",
        "pub_date": "2018-02-08T15:58:26Z",
        "article_slug": "<django.db.models.fields.CharField>",
        "article_body": "<p><strong>Innovation management</strong>&nbsp;is a combination of the&nbsp;<a href=\"https://en.wikipedia.org/wiki/Management\" title=\"Management\">management</a>&nbsp;of&nbsp;<a href=\"https://en.wikipedia.org/wiki/Innovation\" title=\"Innovation\">innovation</a>&nbsp;processes, and&nbsp;<a href=\"https://en.wikipedia.org/wiki/Change_management\" title=\"Change management\">change management</a>. It refers both to&nbsp;<a href=\"https://en.wikipedia.org/wiki/Product_(business)\" title=\"Product (business)\">product</a>,&nbsp;<a href=\"https://en.wikipedia.org/wiki/Business_process\" title=\"Business process\">business process</a>, and&nbsp;<a href=\"https://en.wikipedia.org/wiki/Organization\" title=\"Organization\">organizational</a>&nbsp;innovation. Innovation management is the subject of ISO 50500 series standards developed by&nbsp;<a href=\"https://en.wikipedia.org/wiki/ISO_TC_279\" title=\"ISO TC 279\">ISO TC 279</a>.</p>\r\n\r\n<p>Innovation management includes a set of tools that allow managers and engineers to cooperate with a common understanding of&nbsp;<a href=\"https://en.wikipedia.org/wiki/Business_process\" title=\"Business process\">processes</a>&nbsp;and&nbsp;<a href=\"https://en.wikipedia.org/wiki/Goal\" title=\"Goal\">goals</a>. Innovation management allows the organization to respond to external or internal opportunities, and use its creativity to introduce new&nbsp;<a href=\"https://en.wikipedia.org/wiki/Idea\" title=\"Idea\">ideas</a>, processes or&nbsp;<a href=\"https://en.wikipedia.org/wiki/Product_(business)\" title=\"Product (business)\">products</a>.<a href=\"https://en.wikipedia.org/wiki/Innovation_management#cite_note-kelly78-1\">[1]</a>&nbsp;It is not relegated to R&amp;D; it involves workers at every level in contributing creatively to a company&#39;s product development, manufacturing and marketing.</p>"
    }
},
{
    "model": "articles.article",
    "pk": 3,
    "fields": {
        "article_title": "Graphene",
        "pub_date": "2018-02-08T16:39:23Z",
        "article_slug": "<django.db.models.fields.CharField>",
        "article_body": "<p><span style=\"background-color:#1abc9c\"><img alt=\"\" src=\"https://upload.wikimedia.org/wikipedia/commons/thumb/9/9e/Graphen.jpg/1200px-Graphen.jpg\" style=\"border-style:solid; border-width:2px; float:left; height:100px; margin-left:12px; margin-right:12px; width:150px\" /></span><span style=\"background-color:null\">Graphene &ndash;a single layer of carbon atoms held together in a honeycomb structure&ndash; boasts extraordinary properties that could radically change our world, through transformational applications in electronics, telecommunications, aerospace, food packaging and virtually every other industry that can exploit its unique features. In an attempt to delineate the current evolutionary state of graphene, provide adequate insight into global R&amp;D investment and pinpoint technological areas for future development, Seven Sigma drafted a patent <strong>landscape</strong> analysis.</span></p>"
    }
},
{
    "model": "articles.image",
    "pk": 1,
    "fields": {
        "image_name": "Green",
        "article_image": "dj7s/article_images/2018/02/08/green.jpg",
        "image_alt": "forest.io",
        "article": 1
    }
},
{
    "model": "articles.image",
    "pk": 2,
    "fields": {
        "image_name": "Gojira",
        "article_image": "dj7s/article_images/2018/02/08/shin_godzilla.jpg",
        "image_alt": "ruuun",
        "article": 1
    }
},
{
    "model": "articles.image",
    "pk": 3,
    "fields": {
        "image_name": "Creative problem solving",
        "article_image": "dj7s/article_images/2018/02/08/Creative-problem-solving.jpg",
        "image_alt": "Creative problem solving",
        "article": 3
    }
},
{
    "model": "articles.image",
    "pk": 4,
    "fields": {
        "image_name": "Graphene",
        "article_image": "dj7s/article_images/2018/02/08/graphene.jpg",
        "image_alt": "Graphene",
        "article": 3
    }
},
{
    "model": "articles.image",
    "pk": 5,
    "fields": {
        "image_name": "Past",
        "article_image": "dj7s/article_images/2018/02/09/retro-mahsup.jpg",
        "image_alt": "past",
        "article": 3
    }
},
{
    "model": "articles.image",
    "pk": 6,
    "fields": {
        "image_name": "Land of the past",
        "article_image": "dj7s/article_images/2018/02/09/uknown_land.jpg",
        "image_alt": "or the future",
        "article": 3
    }
},
{
    "model": "articles.keyword",
    "pk": 1,
    "fields": {
        "keyword_name": "forest",
        "keyword_desc": "relates to forests"
    }
},
{
    "model": "articles.keyword",
    "pk": 2,
    "fields": {
        "keyword_name": "innovation",
        "keyword_desc": "innovation"
    }
},
{
    "model": "articles.keyword",
    "pk": 3,
    "fields": {
        "keyword_name": "Graphene",
        "keyword_desc": "sdrgdgs"
    }
},
{
    "model": "articles.keyword",
    "pk": 4,
    "fields": {
        "keyword_name": "another_one",
        "keyword_desc": "and another one"
    }
},
{
    "model": "articles.taxonomy",
    "pk": 1,
    "fields": {
        "article": 1,
        "keyword": 1
    }
},
{
    "model": "articles.taxonomy",
    "pk": 2,
    "fields": {
        "article": 2,
        "keyword": 2
    }
},
{
    "model": "articles.taxonomy",
    "pk": 3,
    "fields": {
        "article": 3,
        "keyword": 3
    }
},
{
    "model": "articles.taxonomy",
    "pk": 4,
    "fields": {
        "article": 3,
        "keyword": 2
    }
},
{
    "model": "articles.taxonomy",
    "pk": 5,
    "fields": {
        "article": 3,
        "keyword": 4
    }
}
]
